{
  "columns": [
    {
      "header": "District",
      "slug": "district"
    },
    {
      "header": "Num Children Visited",
      "slug": "number_of_children_visited"
    },
    {
      "header": "Gender-male",
      "expand_column_value": "male",
      "slug": "gender-male"
    },
    {
      "header": "Gender-female",
      "expand_column_value": "female",
      "slug": "gender-female"
    }
  ],
  "data": [
    {
      "district": "Middlesex",
      "number_of_children_visited": 46,
      "gender-male": 10,
      "gender-female": 35
    },
    {
      "district": "Suffolk",
      "number_of_children_visited": 85,
      "gender-male": 81,
      "gender-female": 4
    }
  ],
  "next_page": "/a/domainOne/api/v0.5/configurablereportdata/9aab0eeb88555a7b4568676883e7379a/?offset=3&limit=3&state=vermont",
  "total_records": 30
}